{
    "name": "Situng",
    "alias": "situng",
    "description": "",
    "keywords": [],
    "order": 0,
    "providers": [
        "Modules\\Situng\\Providers\\SitungServiceProvider"
    ],
    "aliases": {},
    "files": [],
    "requires": []
}
